NYC Sanitation and Rat Sightings
…
rat_date <- rat_data %>% 
  mutate(Created.Date = as.Date(Created.Date, "%m/%d/%Y")) %>%
  mutate(Created.Date = as.character(Created.Date)) %>%
  mutate(Created.Date = substr(Created.Date, 1, 8)) %>%
  mutate(Created.Date = paste(Created.Date, '01')) %>%
  mutate(Created.Date = as.Date(Created.Date, "%Y-%m-%d")) %>%
  group_by(Created.Date, Borough) %>%
  tally() %>%
  filter(Created.Date > as.Date('2020-01-01', '%Y-%m-%d'), Created.Date < as.Date('2021-03-01', '%Y-%m-%d')) %>% 
  arrange(desc(Created.Date))

rat_date

## # A tibble: 60 x 3
## # Groups:   Created.Date [12]
##    Created.Date Borough           n
##    <date>       <chr>         <int>
##  1 2021-01-01   Bronx           224
##  2 2021-01-01   Brooklyn        412
##  3 2021-01-01   Manhattan       423
##  4 2021-01-01   Queens          158
##  5 2021-01-01   Staten Island    33
##  6 2020-12-01   Bronx           234
##  7 2020-12-01   Brooklyn        317
##  8 2020-12-01   Manhattan       236
##  9 2020-12-01   Queens          144
## 10 2020-12-01   Staten Island    35
## #  with 50 more rows
…
ton_map <- full_tonnage %>%
  mutate(community_district = convertToShpDistrict(district)) %>% 
  group_by(community_district) %>%
  summarise(total_ton = sum(REFUSETONSCOLLECTED))

ton_map

## # A tibble: 60 x 2
##    community_district total_ton
##    <chr>                  <dbl>
##  1 BK01                  84902.
##  2 BK02                  37933.
##  3 BK03                  65349.
##  4 BK04                  50834.
##  5 BK05                  75485.
##  6 BK06                  33168.
##  7 BK07                  51282.
##  8 BK08                  41696 
##  9 BK09                  46222.
## 10 BK10                  53045.
## #  with 50 more rows

rat_map <- rat_data %>%
  mutate(community_district = convertToShpDistrict(Community.Board)) %>% 
  group_by(community_district) %>%
  tally()

rat_map

## # A tibble: 68 x 2
##    community_district     n
##    <chr>              <int>
##  1 BK01                 437
##  2 BK02                 439
##  3 BK03                1046
##  4 BK04                 538
##  5 BK05                 359
##  6 BK06                 318
##  7 BK07                 345
##  8 BK08                 529
##  9 BK09                 286
## 10 BK10                 175
## #  with 58 more rows
…
